Project 2
…
to.output <- data_frame(prob = predict(model.3, newdata=final.data, type='response'),
                        class = ifelse(prob < 0.5, 0, 1)) %>%
              mutate(id = row_number()) %>%
              select(id, prob, class)
to.output

## # A tibble: 40 x 3
##       id    prob class
##    <int>   <dbl> <dbl>
##  1     1 0.251       0
##  2     2 0.926       1
##  3     3 0.944       1
##  4     4 0.777       1
##  5     5 0.0674      0
##  6     6 0.0289      0
##  7     7 0.142       0
##  8     8 0.0247      0
##  9     9 0.00686     0
## 10    10 0.00441     0
## # ... with 30 more rows
…
